index,x,y,y
1,-1.33656847476959,4.08651208877564,8.79362678527832
2,-3.25870013237,4.46978807449341,7.95808506011963
3,-2.91015815734863,5.04302644729614,7.60379409790039
4,-2.4808886051178,4.71340847015381,7.69146871566772
5,-1.01246011257172,3.46704053878784,7.4749174118042
6,-1.98861753940582,-0.224870592355728,10.7140827178955
7,-0.507732808589935,-1.42069339752197,10.0510139465332
8,-0.782254695892334,-0.880992233753204,9.68738079071045
9,-0.908975481987,-0.806492805480957,9.70127391815186
10,-1.05366241931915,-0.796431720256805,9.65096855163574
11,-1.1868509054184,-0.731274724006653,9.69768142700195
12,-1.22254347801209,-0.706840872764587,9.69792079925537
13,-1.34495258331299,-0.666836380958557,9.61216259002686
14,-1.53036260604858,-0.482624053955078,9.6401891708374
15,-2.54724311828613,-0.303442269563675,9.4995756149292
16,-1.27452540397644,-0.071799501776695,9.7185230255127
17,-1.0754611492157,-0.025566767901182,9.54005813598633
18,-1.27428591251373,-0.280685245990753,9.65168857574463
19,-1.38399887084961,0.070012830197811,9.67228889465332
20,-1.23044872283936,-0.259844601154327,9.67324733734131
21,-0.712546229362488,-0.547062456607819,9.71924018859863
22,-0.057382870465517,-0.273259252309799,9.72499084472656
23,0.447823584079742,-0.311826437711716,9.75541210174561
24,0.657188355922699,-0.366922438144684,9.7314567565918
25,0.394643902778625,-0.267749637365341,9.73864459991455
26,0.379552394151688,-0.23229655623436,9.74271583557129
27,0.345057487487793,-0.296255826950073,9.74463176727295
28,0.5036381483078,-0.259125888347626,9.71780300140381
29,0.343859791755676,-0.347279489040375,9.76571369171143
30,0.417640507221222,-0.276612877845764,9.72714614868164
31,0.322300463914871,-0.278289765119553,9.73552989959717
32,0.38937383890152,-0.320450127124786,9.74080085754395
33,0.318946778774261,-0.270384669303894,9.74271678924561
34,0.354639410972595,-0.289069414138794,9.73840427398682
35,0.367335468530655,-0.329552978277206,9.73049926757813
36,0.328049570322037,-0.313742816448212,9.73984241485596
37,0.321342289447784,-0.339853554964066,9.74295616149902
38,0.340985208749771,-0.382972151041031,9.74439430236816
39,0.290919661521912,-0.350154101848602,9.73936367034912
40,0.329007774591446,-0.389679491519928,9.73193740844727
41,0.237979605793953,-0.339613974094391,9.73840427398682
42,0.319425880908966,-0.459387928247452,9.74846458435059
43,0.234146863222122,-0.350393623113632,9.7415189743042
44,0.297387450933456,-0.415790230035782,9.73457145690918
45,0.256424784660339,-0.428725808858871,9.74247646331787
46,0.244926497340202,-0.448368698358536,9.73960113525391
47,0.257862061262131,-0.40908282995224,9.73936271667481
48,0.227199956774712,-0.448608249425888,9.74606990814209
49,0.255227029323578,-0.425372123718262,9.74894428253174
50,0.240854173898697,-0.433037668466568,9.73552989959717
51,0.238937810063362,-0.445254623889923,9.74942398071289
52,0.236302763223648,-0.440703213214874,9.73505115509033
53,0.238698214292526,-0.447889626026154,9.74127960205078
54,0.243968322873116,-0.43950542807579,9.73768615722656
55,0.239895984530449,-0.440224081277847,9.74223804473877
56,0.242051914334297,-0.437828630208969,9.74463367462158
57,0.242770552635193,-0.447410523891449,9.74942398071289
58,0.236302763223648,-0.432319015264511,9.74439239501953
59,0.226720854640007,-0.464657962322235,9.74247646331787
60,0.234865501523018,-0.441661357879639,9.74319553375244
61,0.222408980131149,-0.443577766418457,9.74175834655762
62,0.223606750369072,-0.450045526027679,9.74127864837647
63,0.232949107885361,-0.430881679058075,9.74391460418701
64,0.229116320610046,-0.455555140972138,9.74391460418701
65,0.23055362701416,-0.442619562149048,9.74678897857666
66,0.240135580301285,-0.455315589904785,9.75014305114746
67,0.239416882395744,-0.445973217487335,9.74606990814209
68,0.235344603657722,-0.443817287683487,9.74175834655762
69,0.240375086665153,-0.449566453695297,9.74223709106445
70,0.233667761087418,-0.454596936702728,9.74559211730957
71,0.240375086665153,-0.444775491952896,9.7451114654541
72,0.239416882395744,-0.445733696222305,9.73840522766113
73,0.235105037689209,-0.460346072912216,9.74870491027832
74,0.227679044008255,-0.438786804676056,9.74607086181641
75,0.229595422744751,-0.451482832431793,9.74415397644043
76,0.220253065228462,-0.444775491952896,9.74726867675781
77,0.225523114204407,-0.442380011081696,9.74487209320068
78,0.229116320610046,-0.443098694086075,9.74870491027832
79,0.238219141960144,-0.450764179229736,9.74223709106445
80,0.221690341830254,-0.447170972824097,9.74367523193359
81,0.240614622831345,-0.438068151473999,9.74080085754395
82,0.233188658952713,-0.453159660100937,9.75373554229736
83,0.234625935554504,-0.447889655828476,9.74056053161621
84,0.242291480302811,-0.445015043020248,9.7381649017334
85,0.237260967493057,-0.455555140972138,9.74990272521973
86,0.23678183555603,-0.450764179229736,9.74367427825928
87,0.242051914334297,-0.457711040973663,9.73864459991455
88,0.243968293070793,-0.449326932430267,9.74247741699219
89,0.238219141960144,-0.451722383499146,9.74678993225098
90,0.236302778124809,-0.44309863448143,9.74750709533691
91,0.233907267451286,-0.46489754319191,9.7439136505127
92,0.226960390806198,-0.451243311166763,9.74583148956299
93,0.231511801481247,-0.452201515436173,9.74199867248535
94,0.224804475903511,-0.459148406982422,9.75038146972656
95,0.231990903615952,-0.447889566421509,9.75229835510254
96,0.235105037689209,-0.459627449512482,9.74104022979736
97,0.23750051856041,-0.460106551647186,9.75589179992676
98,0.241572827100754,-0.457471549510956,9.73073863983154
99,0.235344558954239,-0.452201455831528,9.73984241485596
100,0.242770552635193,-0.455315589904785,9.74247741699219
101,0.235584110021591,-0.448368698358536,9.74271678924561
102,0.240854173898697,-0.465616136789322,9.74319648742676
103,0.242531031370163,-0.449087381362915,9.74271678924561
104,0.242531016469002,-0.461064755916595,9.73840522766113
105,0.227679044008255,-0.447410583496094,9.74415397644043
106,0.237021371722221,-0.465376615524292,9.74056053161621
107,0.227918580174446,-0.460106611251831,9.75229835510254
108,0.232709556818008,-0.460585683584213,9.74271678924561
109,0.231032699346542,-0.457471519708633,9.74223804473877
110,0.233907297253609,-0.453399181365967,9.74774742126465
111,0.233907297253609,-0.457711070775986,9.74080085754395
112,0.233667731285095,-0.455315589904785,9.74439334869385
113,0.237500503659248,-0.469928026199341,9.74175834655762
114,0.235823675990105,-0.458429723978043,9.74894523620606
115,0.244447395205498,-0.453159660100937,9.75445461273193
116,0.234865501523018,-0.457950592041016,9.7439136505127
117,0.241333276033401,-0.451243311166763,9.73936271667481
118,0.245166033506393,-0.46130433678627,9.74750804901123
119,0.2329490929842,-0.459387868642807,9.75086116790772
120,0.230793192982674,-0.462262541055679,9.75086212158203
121,0.221690341830254,-0.45268052816391,9.73433208465576
122,0.234146863222122,-0.465855687856674,9.74798679351807
123,0.229355901479721,-0.462741553783417,9.74774742126465
124,0.230074524879456,-0.470407098531723,9.73960304260254
125,0.227679044008255,-0.459387928247452,9.74583148956299
126,0.251154720783234,-0.458669245243073,9.74104022979736
127,0.238937810063362,-0.431600332260132,9.71780300140381
128,0.248998805880547,-0.564070284366608,9.75565338134766
129,0.242770582437515,-0.555686116218567,9.74415397644043
130,0.21522256731987,-0.589941561222076,9.74032211303711
131,0.217857599258423,-0.508016109466553,9.74702739715576
132,0.288045108318329,-0.562153935432434,9.72666740417481
133,0.216180756688118,-0.541792392730713,9.7381649017334
134,0.234146863222122,-0.582275986671448,9.73552989959717
135,0.254987478256226,-0.562632977962494,9.74127864837647
136,0.336194217205048,-0.641204714775085,9.74535083770752
137,0.239895984530449,-0.500829637050629,9.72427177429199
138,0.230074524879456,-0.60431432723999,9.76020336151123
139,0.296908348798752,-0.597127914428711,9.73097801208496
140,0.248519733548164,-0.613896250724793,9.74343490600586
141,0.293315142393112,-0.572454571723938,9.73576927185059
142,0.240854188799858,-0.634736895561218,9.74103927612305
143,0.284691452980042,-0.565747141838074,9.71780300140381
144,0.320144534111023,-0.62970644235611,9.7290620803833
145,0.251394301652908,-0.579161882400513,9.7451114654541
146,0.328049600124359,-0.587785601615906,9.72522926330566
147,0.260976195335388,-0.617249965667725,9.74127960205078
148,0.341464281082153,-0.584671437740326,9.73768520355225
149,0.228158161044121,-0.578203618526459,9.75301647186279
150,0.312239438295364,-0.535564124584198,9.73265552520752
151,0.297147899866104,-0.602397918701172,9.74079990386963
152,0.301459759473801,-0.575089454650879,9.73433208465576
153,0.283493727445602,-0.607668042182922,9.74367427825928
154,0.25858074426651,-0.566465735435486,9.73313426971436
155,0.32086318731308,-0.562633037567139,9.72810363769531
156,0.236302763223648,-0.613177597522736,9.75828647613525
157,0.371168196201324,-0.597367525100708,9.72379207611084
158,0.284451901912689,-0.54562509059906,9.74247646331787
159,0.341464281082153,-0.572694063186646,9.73672771453857
160,0.310562640428543,-0.599762976169586,9.73696708679199
161,0.327330976724625,-0.584431886672974,9.73624992370606
162,0.302897065877914,-0.575089573860168,9.74080085754395
163,0.319904983043671,-0.599283874034882,9.74583053588867
164,0.367574989795685,-0.54203188419342,9.71564865112305
165,0.288284659385681,-0.619405925273895,9.75589179992676
166,0.334517419338226,-0.574370861053467,9.72954082489014
167,0.2528315782547,-0.575808227062225,9.74750709533691
168,0.375480055809021,-0.616052210330963,9.73217582702637
169,0.291398823261261,-0.639767467975616,9.74127864837647
170,0.316072225570679,-0.571975409984589,9.73960208892822
171,0.301699340343475,-0.605991244316101,9.73433303833008
172,0.33284056186676,-0.647672533988953,9.73600959777832
173,0.328049600124359,-0.590660214424133,9.72834396362305
174,0.278463184833527,-0.629466891288757,9.74439239501953
175,0.334517389535904,-0.614375352859497,9.72930145263672
176,0.245166033506393,-0.673783242702484,9.75205802917481
177,0.380271017551422,-0.608386695384979,9.71181392669678
178,0.234625965356827,-0.556644320487976,9.74175930023193
179,0.254508435726166,-0.736305356025696,9.75589179992676
180,0.303615719079971,-0.548499703407288,9.71516895294189
181,0.293075621128082,-0.650786638259888,9.74175834655762
182,0.278463184833527,-0.617729008197784,9.73864555358887
183,0.288524180650711,-0.634497404098511,9.74271678924561
184,0.367574989795685,-0.640486061573029,9.73050022125244
185,0.267683535814285,-0.628269135951996,9.74271583557129
186,0.34577614068985,-0.633778750896454,9.74008178710938
187,0.251633822917938,-0.593534708023071,9.73720741271973
188,0.372605502605438,-0.655817151069641,9.73385334014893
189,0.242770552635193,-0.628029525279999,9.75086116790772
190,0.396799862384796,-0.619884967803955,9.7187614440918
191,0.251394271850586,-0.692947030067444,9.75445461273193
192,0.384343326091766,-0.599283874034882,9.71492958068848
193,0.263850778341293,-0.665878176689148,9.74702835083008
194,0.307927578687668,-0.638569712638855,9.72379207611084
195,0.291159242391586,-0.651505291461945,9.73984241485596
196,0.311999887228012,-0.656296253204346,9.73457145690918
197,0.271037220954895,-0.656535804271698,9.74080085754395
198,0.345057517290115,-0.62036406993866,9.72427082061768
199,0.288284689188004,-0.666836380958557,9.73361396789551
200,0.307927578687668,-0.634257912635803,9.73768615722656
201,0.303376168012619,-0.654379844665527,9.73960304260254
202,0.312718570232391,-0.649349391460419,9.73409271240234
203,0.34218293428421,-0.664919972419739,9.72187519073486
204,0.309604406356811,-0.665638625621796,9.74367427825928
205,0.295710623264313,-0.594732403755188,9.72618770599365
206,0.363263130187988,-0.706840872764587,9.72882270812988
207,0.275828182697296,-0.61317765712738,9.74223804473877
208,0.353920757770538,-0.665638566017151,9.72642707824707
209,0.321342259645462,-0.674022793769836,9.74103927612305
210,0.286607831716537,-0.618447661399841,9.72930240631104
211,0.359430372714996,-0.66300356388092,9.72690582275391
212,0.294991999864578,-0.659889459609985,9.74079990386963
213,0.288763761520386,-0.681448817253113,9.75014209747314
214,0.29642927646637,-0.574370920658112,9.70606517791748
215,0.335236012935638,-0.73510754108429,9.74535179138184
216,0.287805616855621,-0.581317782402039,9.72618770599365
217,0.308885782957077,-0.713069081306458,9.74008083343506
218,0.313916265964508,-0.636413753032684,9.73265552520752
219,0.274630427360535,-0.701331257820129,9.74583053588867
220,0.320623576641083,-0.614375293254852,9.72379207611084
221,0.30481344461441,-0.675460040569305,9.7381649017334
222,0.307927548885345,-0.658691763877869,9.73505115509033
223,0.314874470233917,-0.655098438262939,9.73169708251953
224,0.318228125572205,-0.657493948936462,9.73073959350586
225,0.333080112934113,-0.661326766014099,9.73073959350586
226,0.319186329841614,-0.65461939573288,9.73576927185059
227,0.325654119253159,-0.66563868522644,9.73505115509033
228,0.314634919166565,-0.677616059780121,9.72858238220215
229,0.318467676639557,-0.636653304100037,9.7381649017334
230,0.334277838468552,-0.671148180961609,9.72834300994873
231,0.314155787229538,-0.661566317081451,9.74415397644043
232,0.298824787139893,-0.654379904270172,9.73289489746094
233,0.328768223524094,-0.65773355960846,9.72954082489014
234,0.30840665102005,-0.661805927753449,9.73073863983154
235,0.326133191585541,-0.659410357475281,9.72666645050049
236,0.305292546749115,-0.664680480957031,9.74247741699219
237,0.322300463914871,-0.655337989330292,9.72930145263672
238,0.322060912847519,-0.667794525623322,9.72115612030029
239,0.317509472370148,-0.66971093416214,9.73457145690918
240,0.322060883045197,-0.65318214893341,9.72642707824707
241,0.324935495853424,-0.66348272562027,9.72283363342285
242,0.311999887228012,-0.680730164051056,9.73936271667481
243,0.315353512763977,-0.644079327583313,9.72498989105225
244,0.302657514810562,-0.682646572589874,9.72834300994873
245,0.293794244527817,-0.656535744667053,9.7381649017334
246,0.303136646747589,-0.662764072418213,9.73217582702637
247,0.27990049123764,-0.660129010677338,9.73552989959717
248,0.28684738278389,-0.645037531852722,9.73720741271973
249,0.303615689277649,-0.681927800178528,9.7381649017334
250,0.28948238492012,-0.642162919044495,9.73145771026611
251,0.295231550931931,-0.668273627758026,9.73648834228516
252,0.311520755290985,-0.643121123313904,9.72594928741455
253,0.315353572368622,-0.66659688949585,9.72666645050049
254,0.305292546749115,-0.662284970283508,9.73505115509033
255,0.322300463914871,-0.66036856174469,9.72858238220215
256,0.316072225570679,-0.671148180961609,9.73936271667481
257,0.328768253326416,-0.645995736122131,9.72834300994873
258,0.322779506444931,-0.668273627758026,9.73505020141602
259,0.325893670320511,-0.659649908542633,9.73744678497314
260,0.312478989362717,-0.668992280960083,9.73768615722656
261,0.317749083042145,-0.647672533988953,9.73169803619385
262,0.299064338207245,-0.678813755512237,9.73720741271973
263,0.306011229753494,-0.651505291461945,9.73289489746094
264,0.307688027620316,-0.67186689376831,9.73552989959717
265,0.316072165966034,-0.642881572246552,9.72546863555908
266,0.310083508491516,-0.67186689376831,9.73049926757813
267,0.312478959560394,-0.657014966011047,9.73696708679199
268,0.311281234025955,-0.66036856174469,9.73193645477295
269,0.320384085178375,-0.652942597866058,9.73840522766113
270,0.32421687245369,-0.663722217082977,9.73552989959717
271,0.316790878772736,-0.658212661743164,9.73337364196777
272,0.321342259645462,-0.656296253204346,9.73097801208496
273,0.320384085178375,-0.668992340564728,9.73768615722656
274,0.327570497989655,-0.661326766014099,9.73648834228516
275,0.317988574504852,-0.668992280960083,9.72786521911621
276,0.324695914983749,-0.656056761741638,9.73457145690918
277,0.319425880908966,-0.6661177277565,9.7221155166626
278,0.318946778774261,-0.65366119146347,9.73792552947998
279,0.327570497989655,-0.663243114948273,9.73648834228516
280,0.315593093633652,-0.654140293598175,9.73888397216797
281,0.31415581703186,-0.657493948936462,9.73505115509033
282,0.305532068014145,-0.665638625621796,9.73648834228516
283,0.306011199951172,-0.65414035320282,9.73600959777832
284,0.299303859472275,-0.677616000175476,9.73984146118164
285,0.299782931804657,-0.648870289325714,9.73744678497314
286,0.317030370235443,-0.658931255340576,9.72834300994873
287,0.30840665102005,-0.665638625621796,9.74175834655762
288,0.316072195768356,-0.646953880786896,9.73073959350586
289,0.318467676639557,-0.667075932025909,9.73409271240234
290,0.315114051103592,-0.659410357475281,9.73361396789551
291,0.323258638381958,-0.668513178825378,9.73744678497314
292,0.31176033616066,-0.669471383094788,9.73361396789551
293,0.32421687245369,-0.65988951921463,9.73313426971436
294,0.31415581703186,-0.672825038433075,9.73600959777832
295,0.325174987316132,-0.605272591114044,9.72642707824707
296,0.438241571187973,-0.619166314601898,9.72882270812988
297,0.428180605173111,-0.609584450721741,9.73505020141602
298,0.356316238641739,-0.625394523143768,9.72019958496094
299,0.327091425657272,-0.581317722797394,9.73505115509033
300,0.322300463914871,-0.61724990606308,9.73600959777832
301,0.355358064174652,-0.585150539875031,9.73505115509033
302,0.331403285264969,-0.613417208194733,9.74032115936279
303,0.32086318731308,-0.661326766014099,9.73744678497314
304,0.387936532497406,-0.638330161571503,9.73025989532471
305,0.299303859472275,-0.594732403755188,9.73073863983154
306,0.324216842651367,-0.655577540397644,9.74080085754395
307,0.310323059558868,-0.625873684883118,9.73552989959717
308,0.309843957424164,-0.628269195556641,9.73217582702637
309,0.344817936420441,-0.645516514778137,9.73648834228516
310,0.314155876636505,-0.615333557128906,9.73025989532471
311,0.33619424700737,-0.646474778652191,9.73696708679199
312,0.340506106615067,-0.632581055164337,9.74319648742676
313,0.333319634199142,-0.615812659263611,9.72259330749512
314,0.347213447093964,-0.649349331855774,9.73792552947998
315,0.320384085178375,-0.617729067802429,9.73361396789551
316,0.327091425657272,-0.651265740394592,9.73600959777832
317,0.328049600124359,-0.627310931682587,9.72786521911621
318,0.338589698076248,-0.613417208194733,9.72978019714356
319,0.350567072629929,-0.666596829891205,9.73073863983154
320,0.33284056186676,-0.635455548763275,9.73409271240234
321,0.333319664001465,-0.621561765670776,9.72594833374023
322,0.316072195768356,-0.655577600002289,9.74127864837647
323,0.266725361347198,-0.612459003925324,9.7451114654541
324,0.377396434545517,-0.545864701271057,9.71924018859863
325,0.317030370235443,-0.668992280960083,9.74990272521973
326,0.280619114637375,-0.596169769763947,9.74223804473877
327,0.435367047786713,-0.680011451244354,9.72019863128662
328,0.276786357164383,-0.5865877866745,9.73696708679199
329,0.343380659818649,-0.634497404098511,9.74990272521973
330,0.336194217205048,-0.624436378479004,9.73648834228516
331,0.334756940603256,-0.619166314601898,9.73696708679199
332,0.329486906528473,-0.625873684883118,9.73936271667481
333,0.34002697467804,-0.632580995559692,9.73265552520752
334,0.323737740516663,-0.619166254997253,9.72978019714356
335,0.334756940603256,-0.633539199829102,9.73984241485596
336,0.318946778774261,-0.617729067802429,9.73026084899902
337,0.334756940603256,-0.633539199829102,9.73265552520752
338,0.327091425657272,-0.634018301963806,9.74559211730957
339,0.359669923782349,-0.624436378479004,9.73025989532471
340,0.331882357597351,-0.637851059436798,9.73313426971436
341,0.345297008752823,-0.637851059436798,9.73792552947998
342,0.372126400470734,-0.619645416736603,9.72115612030029
343,0.337152421474457,-0.655577600002289,9.73409271240234
344,0.369730889797211,-0.656056702136993,9.73169708251953
345,0.336673319339752,-0.612938106060028,9.73265552520752
346,0.376917362213135,-0.647912085056305,9.72786426544189
347,0.33284056186676,-0.603356182575226,9.7484655380249
348,0.251873403787613,-0.651744842529297,9.74942302703857
349,0.394164800643921,-0.631143689155579,9.71780395507813
350,0.352962583303452,-0.65366119146347,9.71924018859863
351,0.259059816598892,-0.561195731163025,9.74894523620606
352,0.375000983476639,-0.756666839122772,9.74942493438721
353,0.297866582870483,-0.57892233133316,9.72690677642822
354,0.341943383216858,-0.651265740394592,9.72930145263672
355,0.345297038555145,-0.638809323310852,9.72882270812988
356,0.325175017118454,-0.655098557472229,9.72930145263672
357,0.321342259645462,-0.644558370113373,9.74175834655762
358,0.352004379034042,-0.642162919044495,9.72834300994873
359,0.328049600124359,-0.637851059436798,9.7254695892334
360,0.342422485351562,-0.65366119146347,9.73505115509033
361,0.346734344959259,-0.625394582748413,9.72403144836426
362,0.326612293720245,-0.649828433990479,9.73552989959717
363,0.315113991498947,-0.652223944664001,9.73744678497314
364,0.318946778774261,-0.642162919044495,9.73600959777832
365,0.329486876726151,-0.667554974555969,9.73505115509033
366,0.349608898162842,-0.614854454994202,9.73217582702637
367,0.362544506788254,-0.683365166187286,9.73457145690918
368,0.387457460165024,-0.64791202545166,9.71780395507813
369,0.330924183130264,-0.658452212810516,9.73696708679199
370,0.34817162156105,-0.65988951921463,9.74367523193359
371,0.367814540863037,-0.65414035320282,9.7221155166626
372,0.347692519426346,-0.66659677028656,9.74175834655762
373,0.371168226003647,-0.65318214893341,9.72690582275391
374,0.344817936420441,-0.665638625621796,9.72355270385742
375,0.360149055719376,-0.674262344837189,9.74271678924561
376,0.325175017118454,-0.637851059436798,9.72978115081787
377,0.363023579120636,-0.659410357475281,9.73265552520752
378,0.339547902345657,-0.65318214893341,9.73696708679199
379,0.347692519426346,-0.648391127586365,9.7312183380127
380,0.332361459732056,-0.661326766014099,9.73552989959717
381,0.345297068357468,-0.652702987194061,9.72690582275391
382,0.317988604307175,-0.656056702136993,9.73744678497314
383,0.353441685438156,-0.645037531852722,9.73217582702637
384,0.333798736333847,-0.663243114948273,9.73888397216797
385,0.341464281082153,-0.646953880786896,9.73313426971436
386,0.339547902345657,-0.646474778652191,9.73169708251953
387,0.349608927965164,-0.653661251068115,9.73169708251953
388,0.350088030099869,-0.655577540397644,9.73744678497314
389,0.340985178947449,-0.651265740394592,9.7312183380127
390,0.356795340776443,-0.634976506233215,9.72834300994873
391,0.338110625743866,-0.670908749103546,9.73505115509033
392,0.349129855632782,-0.645037472248077,9.73217582702637
393,0.346734344959259,-0.655577540397644,9.73361396789551
394,0.335236042737961,-0.66036856174469,9.72882270812988
395,0.337152421474457,-0.637851059436798,9.73552989959717
396,0.343380719423294,-0.668992280960083,9.73600959777832
397,0.332361459732056,-0.652223944664001,9.7312183380127
398,0.337631523609161,-0.649349331855774,9.73505115509033
399,0.353441655635834,-0.646474838256836,9.72882270812988
400,0.338589727878571,-0.6474329829216,9.73025989532471
401,0.340985178947449,-0.662764012813568,9.73648834228516
402,0.357274413108826,-0.636413753032684,9.72451114654541
403,0.317030400037765,-0.670908629894257,9.73457145690918
404,0.386499285697937,-0.64839118719101,9.72834396362305
405,0.391769349575043,-0.637851059436798,9.73744678497314
406,0.247082427144051,-0.619166314601898,9.74319553375244
407,0.40470489859581,-0.675699591636658,9.736008644104
408,0.375480055809021,-0.626352787017822,9.71301364898682
409,0.363023579120636,-0.651265740394592,9.74223804473877
410,0.331403255462646,-0.639767467975616,9.74654960632324
411,0.335236012935638,-0.656056702136993,9.73888397216797
412,0.390332043170929,-0.62299907207489,9.71828269958496
413,0.31176033616066,-0.682407021522522,9.74942398071289
414,0.361107170581818,-0.626352727413178,9.74175834655762
415,0.363502681255341,-0.647912085056305,9.72978019714356
416,0.346255242824554,-0.655577600002289,9.74463176727295
417,0.375480085611343,-0.643600225448608,9.72451114654541
418,0.306011170148849,-0.631622850894928,9.74750709533691
419,0.397997587919235,-0.668034076690674,9.72546863555908
420,0.360149025917053,-0.634497463703156,9.72978019714356
421,0.333798736333847,-0.634976506233215,9.73936271667481
422,0.378354638814926,-0.650786638259888,9.73073959350586
423,0.378833740949631,-0.642162919044495,9.71492862701416
424,0.31511402130127,-0.657494008541107,9.74894523620606
425,0.368293642997742,-0.631143689155579,9.72738552093506
426,0.351046204566956,-0.66036856174469,9.72738456726074
427,0.346255242824554,-0.633539199829102,9.73696708679199
428,0.313676744699478,-0.646474778652191,9.74175834655762
429,0.395602077245712,-0.640246570110321,9.72115707397461
430,0.317030400037765,-0.633060097694397,9.74798679351807
431,0.342901557683945,-0.672825038433075,9.73169708251953
432,0.326133221387863,-0.606709837913513,9.73073863983154
433,0.269599944353104,-0.561195731163025,9.73313426971436
434,0.363502681255341,-0.678095161914825,9.74271678924561
435,0.260018020868301,-0.671866834163666,9.75613212585449
436,0.362065374851227,-0.626831829547882,9.72498893737793
437,0.278702765703201,-0.604314386844635,9.74319458007813
438,0.334277868270874,-0.69150984287262,9.75325584411621
439,0.339068830013275,-0.626831889152527,9.72690582275391
440,0.337152421474457,-0.607188940048218,9.72978019714356
441,0.338589698076248,-0.709236323833466,9.74032115936279
442,0.373084604740143,-0.672345995903015,9.72930145263672
443,0.344817966222763,-0.665159523487091,9.74127960205078
444,0.363502681255341,-0.661805808544159,9.72930240631104
445,0.348650693893433,-0.674741387367249,9.73217582702637
446,0.358711719512939,-0.671866834163666,9.73313426971436
447,0.341464310884476,-0.669471383094788,9.73073863983154
448,0.35727447271347,-0.67330414056778,9.73744678497314
449,0.33954793214798,-0.671387791633606,9.73505115509033
450,0.345297038555145,-0.670908629894257,9.72786426544189
451,0.341943383216858,-0.670908749103546,9.73217582702637
452,0.340027034282684,-0.67234593629837,9.7312183380127
453,0.33284056186676,-0.667554974555969,9.73169708251953
454,0.348650723695755,-0.664201319217682,9.73169708251953
455,0.359669923782349,-0.675699591636658,9.73361396789551
456,0.34912982583046,-0.665638625621796,9.73361396789551
457,0.354878962039947,-0.673304200172424,9.73552989959717
458,0.350088000297546,-0.67330414056778,9.73313426971436
459,0.351525336503983,-0.669471442699432,9.73265552520752
460,0.356795370578766,-0.669950485229492,9.73361396789551
461,0.349129855632782,-0.680969655513763,9.73217582702637
462,0.351046174764633,-0.661805808544159,9.72451019287109
463,0.358711719512939,-0.688156127929688,9.73025989532471
464,0.322300463914871,-0.655098557472229,9.73984241485596
465,0.368772715330124,-0.670429587364197,9.73217582702637
466,0.33284056186676,-0.676657855510712,9.7312183380127
467,0.363502681255341,-0.677616000175476,9.73552989959717
468,0.359669893980026,-0.659889459609985,9.73600959777832
469,0.352962553501129,-0.685281574726105,9.7312183380127
470,0.343859732151031,-0.668034076690674,9.73600959777832
471,0.358232647180557,-0.650786638259888,9.73552989959717
472,0.337631523609161,-0.685760617256165,9.73792552947998
473,0.35727447271347,-0.671387791633606,9.72546863555908
474,0.32709139585495,-0.663722217082977,9.73840522766113
475,0.355358064174652,-0.679532408714294,9.72355175018311
476,0.335236042737961,-0.677136898040772,9.73888397216797
477,0.35200434923172,-0.668992280960083,9.73696708679199
478,0.35152530670166,-0.668992280960083,9.73936271667481
479,0.348171651363373,-0.674262344837189,9.73552989959717
480,0.353920817375183,-0.677136898040772,9.73361396789551
481,0.36110720038414,-0.668992340564728,9.73073959350586
482,0.35152530670166,-0.676178693771362,9.73648834228516
483,0.351046204566956,-0.67282509803772,9.73457145690918
484,0.355837166309357,-0.669950485229492,9.73648834228516
485,0.345297038555145,-0.675699591636658,9.73409271240234
486,0.34242245554924,-0.673304200172424,9.74032020568848
487,0.362065374851227,-0.69055163860321,9.7254695892334
488,0.376917362213135,-0.664201378822327,9.73313426971436
489,0.32709139585495,-0.657014906406403,9.74702930450439
490,0.353920757770538,-0.686239778995514,9.73505115509033
491,0.408537685871124,-0.651265740394592,9.72163581848145
492,0.326612293720245,-0.688156127929688,9.74463272094727
493,0.392727553844452,-0.651265740394592,9.72594833374023
494,0.386978358030319,-0.686239719390869,9.73552894592285
495,0.361586332321167,-0.657014906406403,9.74175834655762
496,0.377396464347839,-0.660847663879395,9.73265647888184
497,0.386499285697937,-0.670429587364197,9.72738552093506
498,0.333319664001465,-0.651265740394592,9.73600959777832
499,0.384103804826736,-0.67905330657959,9.73648834228516
500,0.360149025917053,-0.637851059436798,9.73744678497314
501,0.368293642997742,-0.694384396076202,9.73409271240234
502,0.354399859905243,-0.652223944664001,9.73984241485596
503,0.378354638814926,-0.676657795906067,9.73840522766113
504,0.365419059991837,-0.643121123313904,9.73361396789551
505,0.351525276899338,-0.665638566017151,9.73984241485596
506,0.423389673233032,-0.659889459609985,9.73025989532471
507,0.343380689620972,-0.657493948936462,9.7312183380127
508,0.391290247440338,-0.663722217082977,9.72642707824707
509,0.379312813282013,-0.679532408714294,9.73696708679199
510,0.385061979293823,-0.657973110675812,9.73026084899902
511,0.349608898162842,-0.670908629894257,9.73792552947998
512,0.397039413452148,-0.649828433990479,9.7312183380127
513,0.356795340776443,-0.665159523487091,9.73744678497314
514,0.377396464347839,-0.665638566017151,9.73936271667481
515,0.352004379034042,-0.637371957302094,9.72259330749512
516,0.379312813282013,-0.670429587364197,9.73984146118164
517,0.346734344959259,-0.664201319217682,9.73217582702637
518,0.365419089794159,-0.678574204444885,9.73361396789551
519,0.365419059991837,-0.645516574382782,9.73552989959717
520,0.363023608922958,-0.657493948936462,9.73217582702637
521,0.384582906961441,-0.668992221355438,9.72738552093506
522,0.372605502605438,-0.651744842529297,9.72978019714356
523,0.377875536680222,-0.65366119146347,9.73552894592285
524,0.207796543836594,-0.622519969940185,9.7551736831665
525,0.413328647613525,-0.679053366184235,9.74080085754395
526,0.289721965789795,-0.546822905540466,9.73552989959717
527,0.343380659818649,-0.638330101966858,9.7451114654541
528,0.341943383216858,-0.615812659263611,9.73265552520752
529,0.328528702259064,-0.612938046455383,9.74175834655762
530,0.351046174764633,-0.620124459266663,9.74223804473877
531,0.368293642997742,-0.65366119146347,9.73169708251953
532,0.35487899184227,-0.601439833641052,9.72786521911621
533,0.377396464347839,-0.671866834163666,9.74654960632324
534,0.320384055376053,-0.649828493595123,9.73936271667481
535,0.365898132324219,-0.675220549106598,9.73361396789551
536,0.324216812849045,-0.623957276344299,9.73217582702637
537,0.363502681255341,-0.636413812637329,9.72930145263672
538,0.334756940603256,-0.712110877037048,9.75133991241455
539,0.373084604740143,-0.649349391460419,9.72978019714356
540,0.334277838468552,-0.628748297691345,9.73313426971436
541,0.36446088552475,-0.670429587364197,9.73265552520752
542,0.33044508099556,-0.648870289325714,9.74606990814209
543,0.351046204566956,-0.645037472248077,9.72498989105225
544,0.360628098249435,-0.647912085056305,9.72930145263672
545,0.344817966222763,-0.662764012813568,9.73313426971436
546,0.335715144872665,-0.664201319217682,9.73936271667481
547,0.346734344959259,-0.652223944664001,9.73552989959717
548,0.34577614068985,-0.648870289325714,9.72403144836426
549,0.336673319339752,-0.669950485229492,9.74415397644043
550,0.335715144872665,-0.639767467975616,9.72834300994873
551,0.346734374761581,-0.668034076690674,9.73936271667481
552,0.323258608579636,-0.6474329829216,9.73840522766113
553,0.334756940603256,-0.664680421352387,9.73744583129883
554,0.336673319339752,-0.684323370456696,9.73792552947998
555,0.322779536247253,-0.642642021179199,9.73984241485596
556,0.342901557683945,-0.66036856174469,9.73792552947998
557,0.340027004480362,-0.661326766014099,9.74079990386963
558,0.326133191585541,-0.659889459609985,9.73313426971436
559,0.333319634199142,-0.647432923316956,9.73648834228516
560,0.340985178947449,-0.663722276687622,9.73265552520752
561,0.333798736333847,-0.664201319217682,9.73600959777832
562,0.334756940603256,-0.656056702136993,9.73936271667481
563,0.341464310884476,-0.657493948936462,9.73984241485596
564,0.341464310884476,-0.668034076690674,9.74032115936279
565,0.331403285264969,-0.663243174552918,9.73600959777832
566,0.334756910800934,-0.650307536125183,9.73936271667481
567,0.344817936420441,-0.690072536468506,9.73696708679199
568,0.340985178947449,-0.657493948936462,9.74894428253174
569,0.347692519426346,-0.626352787017822,9.72834300994873
570,0.31511402130127,-0.680011451244354,9.7451114654541
571,0.353441655635834,-0.645995736122131,9.73025989532471
572,0.329486906528473,-0.608626246452331,9.74127960205078
573,0.299782961606979,-0.639288306236267,9.74175834655762
574,0.361586302518845,-0.653182089328766,9.73792457580566
575,0.334756910800934,-0.630185544490814,9.74127960205078
576,0.306969404220581,-0.652223944664001,9.74271678924561
577,0.369730949401855,-0.642642021179199,9.76188087463379
578,0.397518455982208,-0.650786638259888,9.71588706970215
579,0.360149025917053,-0.641204714775085,9.74223709106445
580,0.349129796028137,-0.652703046798706,9.72834396362305
581,0.34817162156105,-0.655098557472229,9.73217582702637
582,0.329007804393768,-0.644079327583313,9.74559116363525
583,0.373563706874847,-0.643600285053253,9.74463272094727
584,0.346734344959259,-0.657973110675812,9.73696708679199
585,0.359190821647644,-0.623957276344299,9.72930145263672
586,0.340027004480362,-0.657973110675812,9.73505115509033
587,0.330924212932587,-0.669950425624847,9.74702835083008
588,0.306011199951172,-0.612938046455383,9.73361396789551
589,0.333319664001465,-0.663243114948273,9.73984146118164
590,0.298824787139893,-0.651744842529297,9.74175834655762
591,0.323258638381958,-0.636413812637329,9.73313426971436
592,0.317030400037765,-0.645037531852722,9.73744678497314
593,0.325175017118454,-0.657014966011047,9.74271678924561
594,0.321342259645462,-0.64839118719101,9.73936271667481
595,0.331403315067291,-0.643600165843964,9.73792552947998
596,0.326612293720245,-0.648870289325714,9.73552989959717
597,0.323737740516663,-0.650786697864533,9.7312183380127
598,0.314634919166565,-0.635455548763275,9.73217582702637
599,0.360148996114731,-0.677136957645416,9.73457145690918
600,0.33044508099556,-0.631143748760223,9.73025989532471
601,0.355358064174652,-0.639288306236267,9.72882270812988
602,0.345776170492172,-0.661326766014099,9.73744583129883
603,0.340985208749771,-0.669950425624847,9.73313426971436
604,0.335715115070343,-0.634497344493866,9.73265552520752
605,0.333319634199142,-0.677616000175476,9.7484655380249
606,0.310323059558868,-0.639288306236267,9.73888397216797
607,0.309364885091782,-0.644558429718018,9.74223709106445
608,0.340506076812744,-0.663243114948273,9.72834396362305
609,0.289242833852768,-0.650786697864533,9.74223709106445
610,0.331882417201996,-0.640246570110321,9.72834300994873
611,0.334277898073196,-0.678095161914825,9.73696708679199
612,0.306490272283554,-0.646953940391541,9.73840522766113
613,0.341943383216858,-0.665638566017151,9.73169708251953
614,0.321342259645462,-0.657494008541107,9.74463367462158
615,0.322300434112549,-0.65414035320282,9.73073863983154
616,0.327570497989655,-0.661326766014099,9.73744678497314
617,0.324216842651367,-0.664201319217682,9.74080085754395
618,0.338110595941544,-0.66036856174469,9.73888397216797
619,0.32709139585495,-0.65414035320282,9.73265552520752
620,0.329007804393768,-0.661805808544159,9.74271678924561
621,0.317509472370148,-0.660847663879395,9.74127960205078
622,0.324695944786072,-0.65414035320282,9.73888397216797
623,0.317988574504852,-0.66036856174469,9.73457145690918
624,0.316551297903061,-0.667554974555969,9.73936271667481
625,0.315593093633652,-0.657973110675812,9.73792552947998
626,0.317988574504852,-0.668513178825378,9.74319648742676
627,0.309364855289459,-0.651744842529297,9.73792552947998
628,0.323258638381958,-0.664201378822327,9.74080085754395
629,0.320384055376053,-0.656056702136993,9.73648834228516
630,0.32086318731308,-0.663243114948273,9.74127960205078
631,0.329486876726151,-0.657014906406403,9.7312183380127
632,0.337631523609161,-0.659889459609985,9.73792552947998
633,0.328528702259064,-0.656535804271698,9.73984241485596
634,0.337631523609161,-0.658452153205872,9.73457145690918
635,0.330924183130264,-0.663722217082977,9.74319648742676
636,0.33044508099556,-0.657493948936462,9.73648834228516
637,0.330924153327942,-0.666596829891205,9.73840522766113
638,0.316551268100738,-0.653661131858826,9.73505115509033
639,0.321342259645462,-0.66659677028656,9.74032115936279
640,0.318467676639557,-0.663722217082977,9.73888397216797
641,0.316072195768356,-0.668034076690674,9.73744678497314
642,0.309364855289459,-0.652223944664001,9.74367523193359
643,0.323258638381958,-0.656056702136993,9.73457145690918
644,0.33044508099556,-0.659889400005341,9.73744678497314
645,0.324695914983749,-0.655098557472229,9.73457145690918
646,0.324695944786072,-0.66659677028656,9.73265552520752
647,0.333798736333847,-0.652223944664001,9.73936271667481
648,0.328528702259064,-0.667075872421265,9.73457145690918
649,0.321342259645462,-0.657014906406403,9.73552989959717
650,0.333798766136169,-0.662764072418213,9.73361396789551
651,0.329486906528473,-0.667075872421265,9.73840522766113
652,0.33284056186676,-0.653661251068115,9.73457145690918
653,0.333319634199142,-0.656056702136993,9.74080085754395
654,0.329486876726151,-0.65318214893341,9.73361396789551
655,0.329007774591446,-0.664201378822327,9.73313426971436
656,0.322779566049576,-0.664201319217682,9.73457145690918
657,0.314155846834183,-0.663243114948273,9.73648834228516
658,0.317030400037765,-0.659410357475281,9.73265552520752
659,0.311281263828278,-0.653661251068115,9.73696708679199
660,0.318467676639557,-0.657493948936462,9.73217582702637
661,0.313676714897156,-0.652703046798706,9.73984146118164
662,0.32709139585495,-0.668513178825378,9.73217582702637
663,0.319425880908966,-0.660847663879395,9.73505115509033
664,0.321821361780167,-0.657493948936462,9.73696708679199
665,0.325175046920776,-0.662284970283508,9.73073863983154
666,0.332361489534378,-0.650786697864533,9.73169708251953
667,0.334277838468552,-0.664201319217682,9.74127864837647
668,0.334756940603256,-0.661805868148804,9.73505115509033
669,0.323737740516663,-0.668992280960083,9.74080085754395
670,0.326612293720245,-0.655577600002289,9.73505115509033
671,0.329486906528473,-0.664201319217682,9.73840522766113
672,0.323737740516663,-0.660847663879395,9.73361396789551
673,0.320384085178375,-0.661805868148804,9.74415397644043
674,0.317988574504852,-0.652223944664001,9.72690677642822
675,0.319425880908966,-0.6661177277565,9.74367523193359
676,0.310323059558868,-0.66036856174469,9.74080085754395
677,0.313197642564774,-0.660847663879395,9.73888397216797
678,0.316072165966034,-0.657014966011047,9.73648834228516
679,0.33044508099556,-0.662764072418213,9.7312183380127
680,0.326612293720245,-0.651744842529297,9.73648834228516
681,0.325175017118454,-0.668513178825378,9.73505115509033
682,0.323737740516663,-0.661805868148804,9.74750709533691
683,0.327570497989655,-0.663722217082977,9.73600959777832
684,0.329486906528473,-0.662284910678864,9.72930145263672
685,0.326133221387863,-0.657494008541107,9.73409271240234
686,0.32709139585495,-0.659889459609985,9.73552989959717
687,0.317509472370148,-0.663722276687622,9.73169708251953
688,0.33284056186676,-0.65318214893341,9.73648834228516
689,0.32086318731308,-0.665638625621796,9.73552989959717
690,0.324216842651367,-0.655577540397644,9.73936271667481
691,0.318467676639557,-0.671387791633606,9.73792552947998
692,0.317509472370148,-0.663722157478333,9.73648834228516
693,0.309364855289459,-0.662284970283508,9.73505115509033
694,0.31511402130127,-0.662764072418213,9.72690582275391
695,0.341943383216858,-0.681448757648468,9.70774269104004
696,0.241812378168106,-0.606230735778809,9.79014682769775
697,0.388415634632111,-0.597607016563416,9.71061706542969
698,0.28684738278389,-0.614854454994202,9.74990272521973
699,0.299303859472275,-0.637851059436798,9.73888397216797
700,0.314634948968887,-0.657014906406403,9.74319648742676
701,0.397518485784531,-0.658931255340576,9.72403144836426
702,0.300262033939362,-0.634497404098511,9.74319648742676
703,0.397518455982208,-0.672825038433075,9.7254695892334
704,0.328049600124359,-0.637371957302094,9.73600959777832
705,0.352962553501129,-0.677616000175476,9.74127960205078
706,0.348650753498077,-0.653661251068115,9.73265552520752
707,0.342901527881622,-0.668513178825378,9.73600959777832
708,0.338589727878571,-0.66036856174469,9.73073863983154
709,0.340506106615067,-0.676178753376007,9.74175834655762
710,0.343859761953354,-0.649349331855774,9.73361396789551
711,0.34577614068985,-0.676657795906067,9.73313426971436
712,0.34912982583046,-0.661805868148804,9.73696708679199
713,0.350088000297546,-0.665159523487091,9.73840522766113
714,0.35152530670166,-0.656535804271698,9.73409271240234
715,0.345297068357468,-0.664201319217682,9.74175834655762
716,0.368772715330124,-0.67905330657959,9.73457145690918
717,0.336673319339752,-0.65988951921463,9.74367523193359
718,0.360149025917053,-0.660847663879395,9.72307395935059
719,0.350567132234573,-0.67330414056778,9.73648834228516
720,0.357274413108826,-0.662284970283508,9.73600959777832
721,0.35152530670166,-0.66659677028656,9.73792552947998
722,0.346734344959259,-0.65366119146347,9.73457145690918
723,0.349608898162842,-0.671387791633606,9.73600959777832
724,0.344817936420441,-0.658931255340576,9.73265552520752
725,0.336673319339752,-0.668513178825378,9.73552989959717
726,0.338589727878571,-0.669950485229492,9.74415397644043
727,0.346255242824554,-0.652702987194061,9.73600959777832
728,0.338589698076248,-0.672345995903015,9.73457145690918
729,0.350088030099869,-0.647912085056305,9.73169708251953
730,0.346734344959259,-0.671866834163666,9.73265552520752
731,0.346734344959259,-0.658452153205872,9.73792552947998
732,0.351525276899338,-0.671387791633606,9.73265552520752
733,0.346734344959259,-0.673783242702484,9.73169708251953
734,0.35727447271347,-0.657014906406403,9.74319648742676
735,0.355358064174652,-0.670908629894257,9.73648834228516
736,0.353920757770538,-0.662764072418213,9.73936271667481
737,0.359669893980026,-0.674262344837189,9.72690582275391
738,0.342422485351562,-0.67186689376831,9.73840522766113
739,0.347213417291641,-0.656056702136993,9.73313426971436
740,0.344817936420441,-0.674262344837189,9.73552989959717
741,0.33619424700737,-0.662764072418213,9.73840522766113
742,0.339068830013275,-0.660847663879395,9.73552989959717
743,0.339547902345657,-0.670908689498901,9.73505115509033
744,0.331882357597351,-0.658452153205872,9.74079990386963
745,0.344817966222763,-0.673783183097839,9.73936271667481
746,0.342422485351562,-0.665159523487091,9.73361396789551
747,0.340506076812744,-0.657493948936462,9.73840522766113
748,0.354878962039947,-0.672345995903015,9.73073863983154
749,0.337631523609161,-0.671866834163666,9.73792552947998
750,0.36110720038414,-0.6661177277565,9.73025989532471
751,0.350088000297546,-0.669950485229492,9.73361396789551
752,0.35535803437233,-0.664680421352387,9.73936271667481
753,0.35727447271347,-0.661805808544159,9.73313426971436
754,0.357274413108826,-0.662284970283508,9.73409271240234
755,0.345297038555145,-0.667555034160614,9.73792552947998
756,0.349129855632782,-0.660847663879395,9.73648834228516
757,0.352483481168747,-0.665638566017151,9.73169708251953
758,0.344338834285736,-0.655098557472229,9.73984241485596
759,0.330924183130264,-0.6661177277565,9.73792552947998
760,0.337152421474457,-0.667075932025909,9.74367523193359
761,0.354878962039947,-0.659410357475281,9.73505115509033
762,0.34577614068985,-0.659410357475281,9.73888397216797
763,0.338589698076248,-0.668513178825378,9.73505115509033
764,0.339068800210953,-0.667075872421265,9.73552989959717
765,0.352004408836365,-0.665159523487091,9.7312183380127
766,0.349608898162842,-0.673783183097839,9.74319648742676
767,0.328528702259064,-0.619166314601898,9.72451019287109
768,0.384582906961441,-0.716901838779449,9.74079895019531
769,0.294512927532196,-0.644558429718018,9.75038242340088
770,0.326612293720245,-0.642642021179199,9.73552989959717
771,0.321342259645462,-0.578922271728516,9.72930145263672
772,0.323258638381958,-0.662764012813568,9.75134086608887
773,0.303615748882294,-0.565986692905426,9.73696708679199
774,0.344338834285736,-0.703008115291595,9.74223804473877
775,0.251394301652908,-0.616291761398315,9.74127960205078
776,0.308406680822372,-0.64839118719101,9.74127960205078
777,0.302657514810562,-0.659410417079926,9.73361396789551
778,0.267204433679581,-0.6474329829216,9.7508602142334
779,0.319904983043671,-0.644079327583313,9.74127960205078
780,0.280619084835052,-0.650786638259888,9.73792552947998
781,0.305052995681763,-0.69055163860321,9.74079990386963
782,0.300262033939362,-0.524784445762634,9.74319553375244
783,0.257622510194778,-0.656056702136993,9.74750804901123
784,0.322300434112549,-0.631622791290283,9.73313426971436
785,0.326133221387863,-0.621082723140717,9.73792457580566
786,0.390332043170929,-0.688635230064392,9.73457145690918
787,0.319904983043671,-0.641204714775085,9.74607086181641
788,0.356316268444061,-0.629706501960754,9.73025989532471
789,0.338589727878571,-0.680969655513763,9.75517272949219
790,0.373563706874847,-0.648870229721069,9.73169708251953
791,0.328528702259064,-0.666117787361145,9.74319648742676
792,0.373084604740143,-0.656535804271698,9.73457145690918
793,0.315593093633652,-0.675220489501953,9.7484655380249
794,0.362544476985931,-0.634497344493866,9.72978019714356
795,0.328049600124359,-0.673304200172424,9.74032115936279
796,0.339547902345657,-0.66036856174469,9.73696708679199
797,0.326612293720245,-0.663243174552918,9.73505115509033
798,0.338589727878571,-0.661326766014099,9.73265552520752
799,0.343380659818649,-0.655098557472229,9.73457145690918
800,0.334756970405579,-0.67186689376831,9.74175834655762
801,0.342422485351562,-0.65366119146347,9.73552989959717
802,0.350088000297546,-0.675220489501953,9.73984241485596
803,0.341943383216858,-0.65366119146347,9.73217582702637
804,0.352483510971069,-0.66036856174469,9.73936176300049
805,0.354399859905243,-0.665638625621796,9.73984241485596
806,0.346255242824554,-0.649828433990479,9.74127960205078
807,0.348171651363373,-0.671866834163666,9.74032115936279
808,0.335715115070343,-0.658931255340576,9.73696708679199
809,0.353920757770538,-0.664680421352387,9.73217582702637
810,0.332361459732056,-0.665159523487091,9.74559211730957
811,0.333319634199142,-0.657493948936462,9.73457145690918
812,0.332361459732056,-0.671866834163666,9.73409271240234
813,0.328049600124359,-0.66036856174469,9.73361396789551
814,0.340027004480362,-0.660847663879395,9.73984241485596
815,0.333319664001465,-0.667554974555969,9.73505115509033
816,0.340027034282684,-0.656056702136993,9.73792552947998
817,0.338110625743866,-0.67330414056778,9.73409271240234
818,0.34577614068985,-0.665159523487091,9.73600959777832
819,0.350567132234573,-0.662764012813568,9.73648834228516
820,0.348650723695755,-0.664201378822327,9.73505115509033
821,0.349129796028137,-0.652702987194061,9.73313426971436
822,0.34577614068985,-0.665159523487091,9.73313426971436
823,0.349608927965164,-0.66036856174469,9.73936271667481
824,0.340985178947449,-0.673304200172424,9.73457145690918
825,0.347213447093964,-0.664680421352387,9.73744678497314
826,0.352483481168747,-0.665638625621796,9.73552989959717
827,0.337631523609161,-0.663243114948273,9.73600959777832
828,0.338589698076248,-0.656535804271698,9.73409271240234
829,0.334756940603256,-0.671866834163666,9.73457145690918
830,0.336673349142075,-0.659410357475281,9.73840522766113
831,0.329486906528473,-0.66659677028656,9.73457145690918
832,0.338589727878571,-0.658452153205872,9.73696708679199
833,0.341943353414535,-0.659410357475281,9.73840522766113
834,0.343380659818649,-0.670429587364197,9.73696708679199
835,0.346255272626877,-0.651744842529297,9.73600959777832
836,0.349608927965164,-0.666596829891205,9.73457145690918
837,0.345297038555145,-0.660847663879395,9.73792552947998
838,0.34577614068985,-0.665159583091736,9.73409271240234
839,0.340985178947449,-0.634018301963806,9.73744678497314
840,0.343859732151031,-0.712110877037048,9.73648834228516
841,0.320384055376053,-0.613896250724793,9.73073863983154
842,0.343380689620972,-0.678095161914825,9.74415397644043
843,0.366856336593628,-0.648870289325714,9.73505115509033
844,0.323737770318985,-0.605272591114044,9.73409271240234
845,0.301699340343475,-0.630664646625519,9.75517272949219
846,0.331403285264969,-0.596648812294006,9.72834300994873
